Breast cancer example
…
ESR1 in active in \(\pm\) 75% of breast cancer tumours.

Expression of ER gene positive for treatment: tumour responds to hormone therapy

Tamoxifen interacts with ER and modulates gene expression.

Proteins of S100 family often dysregulated in cancer

S100A8 expression represses immune system in tumour en creates an environment of inflammation that promotes tumour growth.

brca <- read_csv("https://raw.githubusercontent.com/GTPB/PSLS20/master/data/breastcancer.csv")
brca

# A tibble: 32 x 10
   sample_name filename     treatment    er grade  node  size   age  ESR1 S100A8
   <chr>       <chr>        <chr>     <dbl> <dbl> <dbl> <dbl> <dbl> <dbl>  <dbl>
 1 OXFT_209    gsm65344.ce tamoxifen     1     3     1   2.5    66 1939.  207. 
 2 OXFT_1769   gsm65345.ce tamoxifen     1     1     1   3.5    86 2752.   37.0
 3 OXFT_2093   gsm65347.ce tamoxifen     1     1     1   2.2    74  379. 2364. 
 4 OXFT_1770   gsm65348.ce tamoxifen     1     1     1   1.7    69 2532.   23.6
 5 OXFT_1342   gsm65350.ce tamoxifen     1     3     0   2.5    62  141. 3219. 
 6 OXFT_2338   gsm65352.ce tamoxifen     1     3     1   1.4    63 1495.  108. 
 7 OXFT_2341   gsm65353.ce tamoxifen     1     1     1   3.3    76 3406.   14.0
 8 OXFT_1902   gsm65354.ce tamoxifen     1     3     0   2.4    61 2813.   68.4
 9 OXFT_1982   gsm65355.ce tamoxifen     1     1     0   1.7    62  950.   74.2
10 OXFT_5210   gsm65356.ce tamoxifen     1     3     0   3.5    65 1053.  182. 
#  with 22 more rows
…
