Tutorial 8.1: Multiple regression on the fish tank dataset
…
Set the Species column as a factor

Change the speciec factor levels from 0, 1 and 2 to Dojofish, Goldfish and Zebrafish. Hint: use the fct_recode function.

Add the variable log.Surv_time: we already saw in previous tutorials that this transfromation is required to obtain normally distributed data.

poison <- poison %>%
  rename("Species" = "species") %>%
  mutate(Species = as.factor(Species)) %>%
  mutate(Species = fct_recode(Species, Dojofish = "0", Goldfish = "1", Zebrafish = "2")) %>%
  mutate(log.Surv_time = log(Surv_time))

poison

## # A tibble: 96 x 5
##    Species   Weight  Dose Surv_time log.Surv_time
##    <fct>      <dbl> <dbl>     <dbl>         <dbl>
##  1 Dojofish    1.88   1        3.46         1.24 
##  2 Zebrafish   1.73   1.1      2.11         0.747
##  3 Goldfish    2.83   1.2     11.4          2.44 
##  4 Zebrafish   1.75   1.3      1.82         0.599
##  5 Dojofish    2.11   1.4      3.28         1.19 
##  6 Dojofish    1.85   1.5      2.96         1.08 
##  7 Zebrafish   1.22   1.6      1.85         0.615
##  8 Goldfish    2.05   1.7      8.05         2.09 
##  9 Dojofish    1.80   1.8      1.65         0.504
## 10 Goldfish    2.50   1.9      7.95         2.07 
## #  with 86 more rows
…
