Tutorial 1.2: Exploring the captopril dataset
…
** Why is this dataset not tidy? **

3 Data visualization

Lets say we now first want to visualize the data. One possibility to easily visualize the four types of blood pressure values is by adopting the gather function from tidyverse. It will reshape the dataframe, such that we have have a single variable type, which points at one of the four blood pressure types, and bp, which points at the actual value for each type for each patient.

captopril %>% 
  gather(type,bp,-id)

## # A tibble: 60 x 3
##       id type     bp
##    <dbl> <chr> <dbl>
##  1     1 SBPb    210
##  2     2 SBPb    169
##  3     3 SBPb    187
##  4     4 SBPb    160
##  5     5 SBPb    167
##  6     6 SBPb    176
##  7     7 SBPb    185
##  8     8 SBPb    206
##  9     9 SBPb    173
## 10    10 SBPb    146
## # ... with 50 more rows
…
