…
statOmics, Ghent University (https://statomics.github.io)

1 Background

Background: Histologic grade in breast cancer provides clinically important prognostic information. Researchers examined whether histologic grade was associated with gene expression profiles of breast cancers and whether such profiles could be used to improve histologic grading. In this tutorial we will assess the association between histologic grade and the expression of the KPNA2 gene that is known to be associated with poor BC prognosis. The patients, however, do not only differ in the histologic grade, but also on their lymph node status. The lymph nodes were not affected (0) or chirugically removed (1).

2 Data analysis

2.1 Import KPNA2 data in R

kpna2 <- read_tsv("https://raw.githubusercontent.com/GTPB/PSLS20/master/data/kpna2.txt")
kpna2

# A tibble: 24 x 3
   grade  node  gene
   <dbl> <dbl> <dbl>
 1     3     1  368.
 2     3     1  590.
 3     1     1  347.
 4     1     1  258.
 5     1     0  154.
 6     3     0  644.
 7     3     1  818.
 8     1     1  329.
 9     3     0  746.
10     3     0  380.
# ... with 14 more rows
…
