Tutorial 1.1: Exploring the NHANES dataset
…
We have successfully combined three of the main dplyr functionalities. Lets try to explore another one!

4.3 Mutate

Assume that we dont trust the BMI values in our dataset and we decide to calculate them ourselves. BMI is typically calculated by taking a persons weight (in kg) and dividing it by the its height (in m) squared. Based on this rule, generate a new column, BMI_self, for the subset of the NHANES dataset that we obtained from the previous question. To create new columns, we will use the mutate() function in dplyr.

NHANES %>%
  select(c("Race1", "Gender","MaritalStatus","Height","Weight","BMI")) %>%
  filter(MaritalStatus != "Married", Race1 == "Hispanic", Gender == "male") %>% 
  mutate(BMI_self = Weight/(Height/100)**2)

## # A tibble: 107 x 7
##    Race1    Gender MaritalStatus Height Weight   BMI BMI_self
##    <chr>    <chr>  <chr>          <dbl>  <dbl> <dbl>    <dbl>
##  1 Hispanic male   Divorced        177.  114.   36.3     36.3
##  2 Hispanic male   Divorced        177.  114.   36.3     36.3
##  3 Hispanic male   NeverMarried    190.  125.   34.7     34.7
##  4 Hispanic male   NeverMarried    176.  161.   52.1     52.1
##  5 Hispanic male   LivePartner     164.   88.2  32.8     32.8
##  6 Hispanic male   LivePartner     164.   88.2  32.8     32.8
##  7 Hispanic male   NeverMarried    162.   78.5  30.0     30.0
##  8 Hispanic male   Divorced        173.   95.4  31.8     31.8
##  9 Hispanic male   LivePartner     179.   92.8  28.9     28.9
## 10 Hispanic male   LivePartner     179.   92.8  28.9     28.9
## # ... with 97 more rows
…
