Tutorial 6.2: Linear regression on the fish tank dataset
…
Capitalize the fist column name

Set the Species column as a factor

Change the speciec factor levels from 0, 1 and 2 to Dojofish, Goldfish and Zebrafish. Hint: use the fct_recode function.

poison <- poison %>%
  rename("Species" = "species") %>%
  mutate(Species = as.factor(Species)) %>%
  mutate(Species = fct_recode(Species, Dojofish = "0", Goldfish = "1", Zebrafish = "2"))

poison

## # A tibble: 96 x 4
##    Species   Weight  Dose Surv_time
##    <fct>      <dbl> <dbl>     <dbl>
##  1 Dojofish    1.88   1        3.46
##  2 Zebrafish   1.73   1.1      2.11
##  3 Goldfish    2.83   1.2     11.4 
##  4 Zebrafish   1.75   1.3      1.82
##  5 Dojofish    2.11   1.4      3.28
##  6 Dojofish    1.85   1.5      2.96
##  7 Zebrafish   1.22   1.6      1.85
##  8 Goldfish    2.05   1.7      8.05
##  9 Dojofish    1.80   1.8      1.65
## 10 Goldfish    2.50   1.9      7.95
## #  with 86 more rows
…
